﻿ [
        {
            "Name": "INTEREST IN THE PROGRAM",
            "Content": ""
        }, {
            "Name": "MOVING TO AN APARTMENT",
            "Content": ""
        }, {
            "Name": "NEW STUDENT",
            "Content": ""
        }, {
            "Name": "PLACEMENT",
            "Content": ""
        }
]